{
	"info": {
		"sections": {
			"global": "Global services"
		}
	},
	"includes": [
		"models/global.json"
	],
	"api": [
		{
			"path": "user/current",
			"name": "common.currentUser",
			"sections": [
				"global"
			],
			"operations": [
				{
					"method": "GET",
					"action": "\\Rbs\\Ua\\Http\\API\\Common\\User::getCurrent",
					"description": "Get current user informations",
					"parameters": [
						{
							"type": "String[]",
							"src": "query",
							"name": "profileNames"
						}
					],
					"responses": [
						{
							"httpStatus": 200,
							"properties": {
								"item": {
									"type": "Rbs.Ua.CurrentUser"
								}
							}
						}
					]
				}
			]
		},
		{
			"path": "global/job/{jobId}/action.check",
			"name": "common.checkJob",
			"sections": [
				"global"
			],
			"operations": [
				{
					"method": "GET",
					"action": "\\Rbs\\Ua\\Http\\API\\Common\\Job::checkJob",
					"description": "Get current job information",
					"parameters": [
						{
							"required": true,
							"type": "Integer",
							"src": "path",
							"name": "jobId",
							"description": "The job id."
						}
					],
					"responses": [
						{
							"httpStatus": 200,
							"properties": {
								"item": {
									"type": "Rbs.Ua.Job"
								}
							}
						},
						{
							"httpStatus": 409,
							"predefinedType": "Error"
						}
					]
				}
			]
		},
		{
			"path": "user/current/action.updateProfiles",
			"name": "common.currentUser.updateProfiles",
			"sections": [
				"global"
			],
			"operations": [
				{
					"method": "PUT",
					"action": "\\Rbs\\Ua\\Http\\API\\Common\\User::putCurrent",
					"description": "Update current user profile informations",
					"parameters": [
						{
							"type": "Object",
							"src": "body",
							"name": "profiles"
						}
					],
					"responses": [
						{
							"httpStatus": 200,
							"properties": {
								"status": {
									"type": "Rbs.Ua.Status"
								}
							}
						}
					]
				}
			]
		},
		{
			"path": "global/collection/{code}",
			"name": "common.collection",
			"sections": [
				"global"
			],
			"operations": [
				{
					"method": "GET",
					"action": "\\Rbs\\Ua\\Http\\API\\Common\\Collection::getByCode",
					"parameters": [
						{
							"type": "String",
							"src": "path",
							"name": "code"
						},
						{
							"type": "Object",
							"src": "query",
							"name": "params"
						},
						{
							"type": "String[]",
							"src": "query",
							"name": "imageFormats",
							"description": "A list of image formats"
						}
					],
					"responses": [
						{
							"httpStatus": 200,
							"properties": {
								"item": {
									"type": "Rbs.Ua.Collection"
								}
							}
						}
					]
				}
			]
		},
		{
			"path": "global/changeVersion",
			"name": "common.changeVersion",
			"sections": [
				"global"
			],
			"operations": [
				{
					"method": "GET",
					"action": "\\Rbs\\Ua\\Http\\API\\Common\\ChangeVersion::execute",
					"authorization": null,
					"parameters": [],
					"responses": [
						{
							"httpStatus": 200,
							"properties": {
								"version": {
									"type": "String"
								}
							}
						}
					]
				}
			]
		},
		{
			"path": "global/configuration",
			"name": "common.configuration",
			"sections": [
				"global"
			],
			"operations": [
				{
					"method": "GET",
					"action": "\\Rbs\\Ua\\Http\\API\\Common\\Configuration::execute",
					"authorization": null,
					"parameters": [],
					"responses": [
						{
							"httpStatus": 200,
							"properties": {
								"item": {
									"type": "Rbs.Ua.Configuration"
								}
							}
						}
					]
				}
			]
		},
		{
			"path": "global/storage/tmp/",
			"name": "common.tmpStorage",
			"sections": [
				"global"
			],
			"operations": [
				{
					"method": "GET",
					"action": "\\Rbs\\Ua\\Http\\API\\Common\\Storage::getTmpStorage",
					"description": "Download a tmp storage.",
					"parameters": [
						{
							"type": "String",
							"src": "query",
							"name": "relativePath",
							"required": true
						}
					],
					"responses": [
						{
							"httpStatus": 200,
							"properties": {
								"item": {
									"type": "Rbs.Ua.Storage"
								}
							}
						}
					]
				},
				{
					"method": "POST",
					"action": "\\Rbs\\Ua\\Http\\API\\Common\\Storage::setTmpStorage",
					"description": "Upload a tmp storage.",
					"parameters": [
						{
							"type": "String",
							"src": "query",
							"name": "relativePath",
							"required": true
						},
						{
							"type": "String",
							"src": "body",
							"name": "contentBase64"
						}
					],
					"responses": [
						{
							"httpStatus": 200,
							"properties": {
								"item": {
									"type": "Rbs.Ua.Storage"
								}
							}
						}
					]
				}
			]
		},
		{
			"path": "global/temporaryDownload/{key}",
			"name": "common.temporaryDownload",
			"sections": [
				"global"
			],
			"operations": [
				{
					"method": "GET",
					"action": "\\Rbs\\Ua\\Http\\API\\Common\\Storage::getTemporaryDownload",
					"parameters": [
						{
							"type": "String",
							"src": "path",
							"name": "key"
						},
						{
							"type": "Boolean",
							"src": "query",
							"name": "forceDownload",
							"defaultValue" : true

						}
					],
					"authorization": null
				}
			]
		},
		{
			"path": "global/barcode/",
			"name": "common.barcodes",
			"sections": [
				"global"
			],
			"operations": [
				{
					"method": "GET",
					"action": "\\Rbs\\Ua\\Http\\API\\Common\\Barcode::getBarcodes",
					"parameters": [
						{
							"type": "String[]",
							"src": "query",
							"name": "texts"
						},
						{
							"type": "Rbs.Ua.BarCode.Config",
							"src": "query",
							"name": "config"
						}
					],
					"responses": [
						{
							"httpStatus": 200,
							"properties": {
								"items": {
									"type": "String[]",
									"description": "list of base 64 encoded src images of bar codes"
								}
							}
						}
					],
					"authorization": null
				}
			]
		},
		{
			"path": "global/barcode/print/",
			"name": "common.barcodes.print",
			"sections": [
				"global"
			],
			"operations": [
				{
					"method": "GET",
					"action": "\\Rbs\\Ua\\Http\\API\\Common\\Barcode::getBarcodesToPrint",
					"parameters": [
						{
							"type": "String[]",
							"src": "query",
							"name": "texts"
						},
						{
							"type": "Rbs.Ua.BarCode.Config",
							"src": "query",
							"name": "config"
						}
					],
					"responses": [
						{
							"httpStatus": 200,
							"properties": {
								"item": {
									"type": "Rbs.Ua.Printable",
									"description": "HTML code with bar codes to print"
								}
							}
						}
					],
					"authorization": null
				}
			]
		},
		{
			"path": "media/image/{imageId}/displayData",
			"name": "Rbs_Media_Image.displayData",
			"sections": [
				"global"
			],
			"operations": [
				{
					"method": "GET",
					"action": "\\Rbs\\Ua\\Http\\API\\Common\\Media::getDisplayData",
					"authorization": null,
					"parameters": [
						{
							"type": "Integer",
							"src": "path",
							"name": "imageId",
							"description": "The image id."
						},
						{
							"type": "Integer",
							"src": "query",
							"name": "maxHeight",
							"description": "The image max height."
						},
						{
							"type": "Integer",
							"src": "query",
							"name": "maxWidth",
							"description": "The image max width."
						}
					],
					"description": "Get display data for an image.",
					"responses": [
						{
							"httpStatus": 200,
							"properties": {
								"item": {
									"type": "Rbs.Ua.ImageDisplayData"
								}
							}
						}
					]
				}
			]
		},
		{
			"path": "global/documentModel/",
			"name": "Rbs_Ua_DocumentModel.list",
			"sections": [
				"global"
			],
			"operations": [
				{
					"method": "GET",
					"action": "\\Rbs\\Ua\\Http\\API\\Common\\DocumentModel::getList",
					"parameters": [],
					"description": "Get document models list.",
					"responses": [
						{
							"httpStatus": 200,
							"properties": {
								"items": {
									"type": "Rbs.Ua.DocumentModel[]"
								}
							}
						}
					]
				}
			]
		},
		{
			"path": "geo/phone/numberConfiguration",
			"name": "Rbs_Geo.phone.numberConfiguration",
			"sections": [
				"global"
			],
			"operations": [
				{
					"method": "GET",
					"action": "\\Rbs\\Ua\\Http\\API\\Common\\Geo::getNumberConfiguration",
					"description": "Get phone number configuration",
					"responses": [
						{
							"httpStatus": 200,
							"properties": {
								"items": {
									"type": "Rbs.Ua.PhoneNumberConfigurationItem[]"
								}
							}
						}
					]
				}
			]
		},
		{
			"path": "geo/phone/action.parse",
			"name": "Rbs_Geo.phone.parseNumber",
			"sections": [
				"global"
			],
			"operations": [
				{
					"method": "GET",
					"action": "\\Rbs\\Ua\\Http\\API\\Common\\Geo::parseNumber",
					"parameters": [
						{
							"type": "String",
							"src": "query",
							"name": "number",
							"required": true,
							"description": "The phone number."
						},
						{
							"type": "String",
							"src": "query",
							"name": "regionCode",
							"description": "The region code of the phone number."
						}
					],
					"description": "Parse phone number",
					"responses": [
						{
							"httpStatus": 200,
							"properties": {
								"item": {
									"type": "Rbs.Ua.PhoneNumberData"
								}
							}
						},
						{
							"httpStatus": 400,
							"predefinedType": "Error"
						}
					]
				}
			]
		},
		{
			"path": "geo/addressModel/",
			"name": "Rbs_Geo_AddressFields.countries",
			"sections": [
				"global"
			],
			"operations": [
				{
					"method": "GET",
					"action": "\\Rbs\\Ua\\Http\\API\\Common\\Geo::getAddressFieldsCountries",
					"parameters": [
						{
							"name": "zoneCode",
							"type": "String",
							"src": "query",
							"description": "The country zone code."
						}
					],
					"description": "Gets the countries corresponding to the customer's zone",
					"responses": [
						{
							"httpStatus": 200,
							"properties": {
								"items": {
									"type": "Rbs.Ua.AddressFieldsCountryData[]"
								}
							}
						}
					]
				}
			]
		},
		{
			"path": "geo/addressModel/{addressModelId}",
			"name": "Rbs_Geo_AddressFields.detail",
			"sections": [
				"global"
			],
			"operations": [
				{
					"method": "GET",
					"action": "\\Rbs\\Ua\\Http\\API\\Common\\Geo::getAddressFieldsDetail",
					"parameters": [
						{
							"name": "addressModelId",
							"type": "Integer",
							"src": "path",
							"description": "The address field document ID."
						}
					],
					"description": "Gets the differents fields of the customer's address",
					"responses": [
						{
							"httpStatus": 200,
							"properties": {
								"item": {
									"type": "Rbs.Ua.AddressFields"
								}
							}
						}
					]
				}
			]
		},
		{
			"path": "global/documentModel/{documentModelName}/typology/{typologyId}/attributes",
			"name": "Rbs_Ua_Typology.attributes",
			"sections": [
				"global"
			],
			"operations": [
				{
					"method": "GET",
					"action": "\\Rbs\\Ua\\Http\\API\\Common\\Typology::attributes",
					"parameters": [
						{
							"name": "documentModelName",
							"type": "String",
							"src": "path",
							"description": "The model of document"
						},
						{
							"name": "typologyId",
							"type": "Integer",
							"src": "path",
							"description": "The typology ID."
						},
						{
							"name": "context",
							"type": "String",
							"src": "query",
							"description": "A visibility context name to filter attributes."
						}
					],
					"description": "Gets typology attributes.",
					"responses": [
						{
							"httpStatus": 200,
							"properties": {
								"item": {
									"type": "Rbs.Ua.Typology.Attributes"
								}
							}
						}
					]
				}
			]
		},
		{
			"path": "global/filter/{contextName}/",
			"name": "common.filter.list",
			"sections": [
				"global"
			],
			"operations": [
				{
					"method": "GET",
					"action": "\\Rbs\\Ua\\Http\\API\\Common\\Filter::list",
					"parameters": [
						{
							"name": "contextName",
							"type": "String",
							"src": "path",
							"description": "The context name"
						}
					],
					"description": "Gets the filters for the given context.",
					"responses": [
						{
							"httpStatus": 200,
							"properties": {
								"items": {
									"type": "Rbs.Ua.Filter[]"
								}
							}
						}
					]
				}
			]
		},
		{
			"path": "global/filter/{contextName}",
			"name": "common.filter.new",
			"sections": [
				"global"
			],
			"operations": [
				{
					"method": "POST",
					"action": "\\Rbs\\Ua\\Http\\API\\Common\\Filter::insert",
					"parameters": [
						{
							"name": "contextName",
							"type": "String",
							"src": "path",
							"description": "The context name"
						},
						{
							"required": true,
							"type": "String",
							"src": "body",
							"name": "label",
							"description": "The new filter's label"
						},
						{
							"required": true,
							"type": "Object",
							"src": "body",
							"name": "content",
							"description": "The new filter's content"
						}
					],
					"description": "Insert a new filter.",
					"responses": [
						{
							"httpStatus": 200,
							"properties": {
								"item": {
									"type": "Rbs.Ua.Filter"
								}
							}
						}
					]
				}
			]
		},
		{
			"path": "global/filter/{contextName}/{filterId}",
			"name": "common.filter.detail",
			"sections": [
				"global"
			],
			"operations": [
				{
					"method": "PUT",
					"action": "\\Rbs\\Ua\\Http\\API\\Common\\Filter::update",
					"parameters": [
						{
							"name": "contextName",
							"type": "String",
							"src": "path",
							"description": "The context name"
						},
						{
							"name": "filterId",
							"type": "Integer",
							"src": "path",
							"description": "The filter id"
						},
						{
							"type": "String",
							"src": "body",
							"name": "label",
							"description": "The new filter's label (if omitted, the label won't be updated)"
						},
						{
							"type": "Object",
							"src": "body",
							"name": "content",
							"description": "The new filter's content (if omitted, the content won't be updated)"
						}
					],
					"description": "Updates a filter.",
					"responses": [
						{
							"httpStatus": 200,
							"properties": {
								"item": {
									"type": "Rbs.Ua.Filter"
								}
							}
						}
					]
				},
				{
					"method": "DELETE",
					"action": "\\Rbs\\Ua\\Http\\API\\Common\\Filter::delete",
					"parameters": [
						{
							"name": "contextName",
							"type": "String",
							"src": "path",
							"description": "The context name"
						},
						{
							"name": "filterId",
							"type": "Integer",
							"src": "path",
							"description": "The filter id"
						}
					],
					"description": "Deletes a filter.",
					"responses": [
						{
							"httpStatus": 200,
							"predefinedType": "Success"
						}
					]
				}
			]
		}
	]
}