{
	"contextId": "Rbs_Setup",
	"documents": [
		{
			"_id": "Rbs_Generic_Attribute_visual",
			"_model": "Rbs_Generic_Attribute",
			"name": "visual",
			"valueType": "DocumentId",
			"documentType": "Rbs_Media_Image",
			"usePicker": true,
			"requiredValue": false,
			"defaultValue": null,
			"localizedValue": false,
			"collectionCode": null,
			"label": "Visuel",
			"_LCID": {
				"fr_FR": {
					"title": "Visuel"
				}
			}
		},
		{
			"_id": "Rbs_Generic_Attribute_description",
			"_model": "Rbs_Generic_Attribute",
			"name": "description",
			"valueType": "RichText",
			"documentType": null,
			"usePicker": false,
			"requiredValue": false,
			"defaultValue": null,
			"localizedValue": false,
			"collectionCode": null,
			"label": "Description",
			"_LCID": {
				"fr_FR": {
					"title": "Description"
				}
			}
		},
		{
			"_id": "Rbs_Generic_Typology_enrichedTopic",
			"_model": "Rbs_Generic_Typology",
			"name": "enrichedTopic",
			"modelName": "Rbs_Website_Topic",
			"groups": [
				{
					"_model": "Rbs_Generic_AttributeGroup",
					"_inline": true,
					"name": "generalAttributes",
					"attributes": [
						{
							"_id": "Rbs_Generic_Attribute_visual"
						},
						{
							"_id": "Rbs_Generic_Attribute_description"
						}
					],
					"label": "Attributs généraux",
					"_LCID": {
						"fr_FR": {
							"title": "Attributs généraux"
						}
					}
				}
			],
			"contexts": [
				{
					"_model": "Rbs_Generic_AttributeContext",
					"_inline": true,
					"name": "list",
					"exposedInAjaxAPI": true,
					"locked": true,
					"label": "Liste sur le site",
					"_LCID": {
						"fr_FR": {
							"title": "Liste sur le site"
						}
					}
				}
			],
			"visibilities": {
				"list": {
					"attributes": {
						"Rbs_Generic_Attribute_visual": true,
						"Rbs_Generic_Attribute_description": true
					}
				}
			},
			"label": "Rubrique enrichie",
			"_LCID": {
				"fr_FR": {
					"title": "Rubrique enrichie"
				}
			}
		}
	]
}