{
	"/Project/Familinet/": false,
	"/Project/Familinet/Mapping/": false,
	"/Project/Familinet/Mapping/:id": false,
	"/Project/Familinet/Mapping/new": false,
	"/Project/FamilinetMapping/": {
		"module": "Project_Familinet",
		"name": "home",
		"rule": {
			"redirectTo": "/Project/FamilinetMapping/Mapping/"
		},
		"auto": false
	},
	"/Project/FamilinetMapping/Mapping/": {
		"model": "Project_Familinet_Mapping",
		"name": "list",
		"rule": {
			"templateUrl": "Document/Project/Familinet/Mapping/list.twig",
			"labelKey": "m.project.familinet.admin.mapping_list | ucf"
		},
		"auto": false
	},
	"/Project/FamilinetMapping/Mapping/:id": {
		"model": "Project_Familinet_Mapping",
		"name": "edit",
		"rule": {
			"templateUrl": "Document/Project/Familinet/Mapping/edit.twig",
			"labelKey": "m.project.familinet.documents.mapping | ucf",
			"labelId": "id"
		},
		"auto": false
	},
	"/Project/FamilinetMapping/Mapping/new": {
		"model": "Project_Familinet_Mapping",
		"name": "new",
		"rule": {
			"templateUrl": "Document/Project/Familinet/Mapping/new.twig",
			"labelKey": "m.rbs.admin.admin.new_resource | ucf"
		},
		"auto": false
	}
}