{
	"sections": [
		{
			"code": "urls",
			"index": 50,
			"icon": "icon-link",
			"label": "m.rbs.seo.ua.urls_title"
		},
		{
			"code": "metas",
			"index": 60,
			"icon": "icon-file-text",
			"label": "m.rbs.seo.ua.metas_title"
		},
		{
			"code": "sitemap",
			"index": 70,
			"icon": "icon-sitemap",
			"label": "m.rbs.seo.ua.sitemap_title"
		}
	],
	"entries": [
		{
			"label": "m.rbs.seo.ua.model_path_rules_list",
			"module": "Rbs_Seo",
			"name": "modelPathRules",
			"section": "urls"
		},
		{
			"label": "m.rbs.seo.ua.document_path_rules_list",
			"module": "Rbs_Seo",
			"name": "documentPathRules",
			"section": "urls"
		},
		{
			"type": "separator",
			"section": "urls"
		},
		{
			"label": "m.rbs.seo.ua.path_rule_list",
			"module": "Rbs_Seo",
			"name": "pathRule",
			"section": "urls"
		},
		{
			"label": "m.rbs.seo.ua.404_list",
			"module": "Rbs_Seo",
			"name": "url404",
			"section": "urls"
		},
		{
			"label": "m.rbs.seo.ua.model_metas_list",
			"module": "Rbs_Seo",
			"name": "modelMetas",
			"section": "metas"
		},
		{
			"label": "m.rbs.seo.ua.document_metas_list",
			"module": "Rbs_Seo",
			"name": "documentMetas",
			"section": "metas"
		},
		{
			"type": "separator",
			"section": "metas"
		},
		{
			"label": "m.rbs.ua.common.administration",
			"type": "text",
			"section": "metas"
		},
		{
			"label": "m.rbs.seo.ua.meta_definition_list",
			"module": "Rbs_Seo",
			"name": "metaDefinitions",
			"section": "metas"
		},
		{
			"label": "m.rbs.seo.ua.meta_group_list",
			"module": "Rbs_Seo",
			"name": "metaGroups",
			"section": "metas"
		},
		{
			"label": "m.rbs.seo.ua.model_sitemap_list",
			"module": "Rbs_Seo",
			"name": "modelSitemap",
			"section": "sitemap"
		},
		{
			"label": "m.rbs.seo.ua.document_sitemap_list",
			"module": "Rbs_Seo",
			"name": "documentSitemap",
			"section": "sitemap"
		}
	]
}