{
	"rbs_website_doc_page": {
		"indexes": {
			"BY_MODEL": {
				"type": "INDEX",
				"fields": [
					"document_model"
				]
			},
			"BY_DISPLAY_DOCUMENT": {
				"type": "INDEX",
				"fields": [
					"displaydocument"
				]
			}
		}
	},
	"rbs_website_doc_section": {
		"indexes": {
			"BY_MODEL": {
				"type": "INDEX",
				"fields": [
					"document_model"
				]
			}
		}
	},
	"rbs_website_doc_sectionpagefunction": {
		"indexes": {
			"BY_FUNCTION": {
				"type": "INDEX",
				"fields": [
					"functioncode",
					"section"
				]
			},
			"BY_PAGE": {
				"type": "INDEX",
				"fields": [
					"page",
					"section"
				]
			}
		}
	},
	"rbs_website_tree": {
		"indexes": {
			"tree_node": {
				"type": "INDEX",
				"fields": [
					"parent_id",
					"node_order"
				]
			}
		}
	}
}