[
	{
		"label": "Modèle d'adresse Française",
		"countryCode": "FR",
		"fields" : [
			{"code":"titleCode", "title":"Civilité", "collectionCode":"Rbs_User_Collection_Title"},
			{"code":"firstName", "title":"Prénom", "required":true},
			{"code":"lastName", "title":"Nom", "required":true},
			{"code":"destinataireOpt", "title":"Mentions complémentaires", "required":false},
			{"code":"street", "title":"Voie", "required":true},
			{"code":"zipCode", "title":"Code postal", "required":true},
			{"code":"locality", "title":"Commune", "required":true},
			{"code":"countryCode", "title":"Pays", "required":true, "collectionCode":"Rbs_Geo_Collection_Countries", "defaultValue":"FR"}
		],
		"fieldsLayoutData":[
			["titleCode", "firstName", "lastName"],
			["destinataireOpt"],
			["street"],
			["zipCode", "locality"],
			["country"]
		]
	}
]