{
	"contextId": "Rbs_Setup",
	"documents": [
		{
			"_id": "Project_Library_PossessionStatus_tosale",
			"_model": "Project_Library_PossessionStatus",
			"label": "À revendre",
			"code": "tosale",
			"iconName": "euro",
			"textClass": "text-warning"
		},
		{
			"_id": "Project_Library_PossessionStatus_solde",
			"_model": "Project_Library_PossessionStatus",
			"label": "Revendu",
			"code": "solde",
			"iconName": "trash",
			"textClass": "text-muted"
		},
		{
			"_id": "Project_Library_PossessionStatus_lost",
			"_model": "Project_Library_PossessionStatus",
			"label": "Perdu",
			"code": "lost",
			"iconName": "remove",
			"textClass": "text-danger"
		},
		{
			"_id": "Project_Library_PossessionStatus_owned",
			"_model": "Project_Library_PossessionStatus",
			"label": "Possédé",
			"code": "owned",
			"iconName": "ok",
			"textClass": "text-success"
		},
		{
			"_id": "Project_Library_LoanStatus_lost",
			"_model": "Project_Library_LoanStatus",
			"label": "Perdu",
			"code": "lost",
			"iconName": "remove",
			"textClass": "text-danger"
		},
		{
			"_id": "Project_Library_LoanStatus_returned",
			"_model": "Project_Library_LoanStatus",
			"label": "Rendu",
			"code": "returned",
			"iconName": "ok",
			"textClass": "text-success"
		},
		{
			"_id": "Project_Library_LoanStatus_ongoing",
			"_model": "Project_Library_LoanStatus",
			"label": "Prêté",
			"code": "ongoing",
			"iconName": "time",
			"textClass": "text-warning"
		},
		{
			"_id": "Project_Library_WorkStatus_canceled",
			"_model": "Project_Library_WorkStatus",
			"label": "Stoppé",
			"code": "canceled",
			"iconName": "remove",
			"textClass": "text-danger"
		},
		{
			"_id": "Project_Library_WorkStatus_ongoing",
			"_model": "Project_Library_WorkStatus",
			"label": "En cours",
			"code": "ongoing",
			"iconName": "play",
			"textClass": "text-warning"
		},
		{
			"_id": "Project_Library_WorkStatus_ended",
			"_model": "Project_Library_WorkStatus",
			"label": "Terminé",
			"code": "ended",
			"iconName": "ok",
			"textClass": "text-success"
		},
		{
			"_id": "Project_Library_ReadingStatus_desired",
			"_model": "Project_Library_ReadingStatus",
			"label": "Souhaité",
			"code": "desired",
			"iconName": "pushpin",
			"textClass": "text-primary"
		},
		{
			"_id": "Project_Library_ReadingStatus_read",
			"_model": "Project_Library_ReadingStatus",
			"label": "Lu",
			"code": "read",
			"iconName": "ok",
			"textClass": "text-muted"
		},
		{
			"_id": "Project_Library_ReadingStatus_stopped",
			"_model": "Project_Library_ReadingStatus",
			"label": "Arrêté",
			"code": "stopped",
			"iconName": "remove",
			"textClass": "text-danger"
		},
		{
			"_id": "Project_Library_ReadingStatus_ongoing",
			"_model": "Project_Library_ReadingStatus",
			"label": "En cours",
			"code": "ongoing",
			"iconName": "time",
			"textClass": "text-warning"
		}
	]
}