{
	"/Rbs/Notification/": {
		"module": "Rbs_Notification",
		"name": "home",
		"rule": {
			"redirectTo": "/Rbs/Notification/Configuration/"
		},
		"auto": false
	},
	"/Rbs/Notification/Configuration/": {
		"model": "Rbs_Notification_Configuration",
		"name": "list",
		"rule": {
			"templateUrl": "Document/Rbs/Notification/Configuration/list.twig",
			"labelKey": "m.rbs.notification.admin.configuration_list | ucf"
		},
		"auto": true
	},
	"/Rbs/Notification/Configuration/:id": {
		"model": "Rbs_Notification_Configuration",
		"name": "edit",
		"rule": {
			"templateUrl": "Document/Rbs/Notification/Configuration/edit.twig",
			"labelKey": "m.rbs.notification.documents.configuration | ucf",
			"labelId": "id"
		},
		"auto": true
	},
	"/Rbs/Notification/Sms/": {
		"model": "Rbs_Notification_Sms",
		"name": "list",
		"rule": {
			"templateUrl": "Document/Rbs/Notification/Sms/list.twig",
			"labelKey": "m.rbs.notification.admin.sms_list | ucf"
		},
		"auto": true
	},
	"/Rbs/Notification/Sms/:id": {
		"model": "Rbs_Notification_Sms",
		"name": "edit",
		"rule": {
			"templateUrl": "Document/Rbs/Notification/Sms/edit.twig",
			"labelKey": "m.rbs.notification.documents.sms | ucf",
			"labelId": "id"
		},
		"auto": true
	},
	"/Rbs/Notification/Sms/:id/translate/:LCID": {
		"model": "Rbs_Notification_Sms",
		"name": "translate",
		"rule": {
			"templateUrl": "Document/Rbs/Notification/Sms/translate.twig",
			"controller": "RbsChangeTranslateEditorController",
			"labelKey": "m.rbs.admin.admin.translation | ucf"
		},
		"auto": true
	},
	"/Rbs/Notification/Sms/new": {
		"model": "Rbs_Notification_Sms",
		"name": "new",
		"rule": {
			"templateUrl": "Document/Rbs/Notification/Sms/new.twig",
			"labelKey": "m.rbs.admin.admin.new_resource | ucf"
		},
		"auto": true
	},
	"/Rbs/Notification/Svi/": {
		"model": "Rbs_Notification_Svi",
		"name": "list",
		"rule": {
			"templateUrl": "Document/Rbs/Notification/Svi/list.twig",
			"labelKey": "m.rbs.notification.admin.svi_list | ucf"
		},
		"auto": true
	},
	"/Rbs/Notification/Svi/:id": {
		"model": "Rbs_Notification_Svi",
		"name": "edit",
		"rule": {
			"templateUrl": "Document/Rbs/Notification/Svi/edit.twig",
			"labelKey": "m.rbs.notification.documents.svi | ucf",
			"labelId": "id"
		},
		"auto": true
	},
	"/Rbs/Notification/Svi/:id/translate/:LCID": {
		"model": "Rbs_Notification_Svi",
		"name": "translate",
		"rule": {
			"templateUrl": "Document/Rbs/Notification/Svi/translate.twig",
			"controller": "RbsChangeTranslateEditorController",
			"labelKey": "m.rbs.admin.admin.translation | ucf"
		},
		"auto": true
	},
	"/Rbs/Notification/Svi/new": {
		"model": "Rbs_Notification_Svi",
		"name": "new",
		"rule": {
			"templateUrl": "Document/Rbs/Notification/Svi/new.twig",
			"labelKey": "m.rbs.admin.admin.new_resource | ucf"
		},
		"auto": true
	}
}