{
	"rbs_user_doc_profile": {
		"indexes": {
			"BY_USER": {
				"type": "UNIQUE",
				"fields": [
					"user"
				]
			}
		}
	},
	"rbs_user_doc_user": {
		"indexes": {
			"BY_EMAIL": {
				"type": "INDEX",
				"fields": [
					"email"
				]
			},
			"BY_LOGIN": {
				"type": "INDEX",
				"fields": [
					"login"
				]
			}
		}
	},
	"rbs_user_doc_group": {
		"indexes": {
			"BY_MODEL": {
				"type": "INDEX",
				"fields": [
					"document_model"
				]
			}
		}
	}
}