{
	"mailSuitable": true,
	"defaultDisplayColumnsFrom": "M",
	"editableContent": {
		"themeSelector": {
			"type": "block",
			"id": "themeSelector",
			"class": null,
			"parameters": {
				"TTL": -1
			},
			"name": "Rbs_Theme_ThemeSelectorMail",
			"label": "S\u00e9lecteur de th\u00e8me",
			"display": null,
			"visibility": "raw"
		},
		"preHeader": {
			"type": "block",
			"id": "preHeader",
			"class": null,
			"parameters": {
				"TTL": -1,
				"content": {
					"e": "Html",
					"t": "",
					"h": null
				}
			},
			"name": "Rbs_Mail_Richtext",
			"label": "Bloc de texte",
			"display": null,
			"visibility": null
		},
		"logo": {
			"type": "block",
			"id": "logo",
			"class": null,
			"parameters": {
				"TTL": -1,
				"content": {
					"e": "Html",
					"t": "",
					"h": null
				}
			},
			"name": "Rbs_Mail_Richtext",
			"label": null,
			"display": null,
			"visibility": null
		},
		"header": {
			"type": "block",
			"id": "header",
			"class": null,
			"parameters": {
				"TTL": -1,
				"content": {
					"e": "Html",
					"t": "",
					"h": null
				}
			},
			"name": "Rbs_Mail_Richtext",
			"label": null,
			"display": null,
			"visibility": null
		},
		"mainContent": {
			"type": "container",
			"id": "mainContent",
			"class": null,
			"parameters": [],
			"grid": 12
		},
		"footer": {
			"type": "block",
			"id": "footer",
			"class": null,
			"parameters": {
				"TTL": -1,
				"content": {
					"e": "Html",
					"t": "",
					"h": null
				}
			},
			"name": "Rbs_Mail_Richtext",
			"label": null,
			"display": null,
			"visibility": null
		}
	}
}

