{
	"mailSuitable": true,
	"defaultDisplayColumnsFrom": "M",
	"editableContent": {
		"themeSelector": {
			"id": "themeSelector",
			"type": "block",
			"name": "Rbs_Theme_ThemeSelectorMail",
			"visibility": "raw",
			"parameters": {
				"TTL": -1
			}
		},
		"header": {
			"grid": 12,
			"id": "header",
			"type": "block",
			"name": "",
			"parameters": {
				"TTL": -1
			}
		},
		"mainContent": {
			"grid": 12,
			"id": "mainContent",
			"type": "container"
		},
		"footer": {
			"grid": 12,
			"id": "footer",
			"type": "block",
			"name": "",
			"parameters": {
				"TTL": -1
			}
		}
	}
}