{
	"defaultDisplayColumnsFrom": "M",
	"editableContent": {
		"popin_themeSelector": {
			"id": "popin_themeSelector",
			"type": "block",
			"name": "Rbs_Theme_ThemeSelector",
			"visibility": "raw",
			"parameters": {
				"TTL": 3600
			}
		},
		"mainContent": {
			"id": "mainContent",
			"grid": 12,
			"idPrefix": "popin_",
			"type": "container"
		}
	}
}