{
	"blocks" : {
		"*": {
			"jsAssets": [
				"Theme/Rbs/Base/Rbs_Geo/js/map-api.js",
				"Theme/Rbs/Base/Rbs_Geo/js/phone.js"
			]
		},
		"ManageAddresses": {
			"jsAssets": [
				"Theme/Rbs/Base/Rbs_Geo/js/address-editor.js",
				"Theme/Rbs/Base/Rbs_Geo/js/manage-addresses.js"
			]
		}
	}
}